x:4, y:0, z:0.0
x:3, y:0, z:0.0
x:3, y:1, z:0.0
x:3, y:2, z:0.0
x:2, y:2, z:0.0
x:1, y:2, z:0.0
x:1, y:1, z:0.0
x:2, y:1, z:0.0
x:3, y:1, z:0.0
x:2, y:1, z:0.0
x:1, y:1, z:0.0
x:1, y:2, z:0.0
x:1, y:1, z:0.0
x:2, y:1, z:0.0
x:2, y:0, z:0.0
x:1, y:0, z:0.0
x:0, y:0, z:0.0
x:0, y:0, z:0.0
x:1, y:0, z:0.0
x:2, y:0, z:0.0
x:1, y:0, z:0.0
x:1, y:1, z:0.0
x:2, y:1, z:0.0
x:1, y:1, z:0.0
x:2, y:1, z:0.0
x:1, y:1, z:0.0
x:2, y:1, z:0.0
x:2, y:2, z:0.0
x:3, y:2, z:0.0
x:2, y:2, z:0.0
x:1, y:2, z:0.0
x:2, y:2, z:0.0
x:1, y:2, z:0.0
x:2, y:2, z:0.0
x:3, y:2, z:0.0
x:3, y:1, z:0.0
x:3, y:0, z:0.0
x:2, y:0, z:0.0
x:2, y:0, z:0.0
x:3, y:0, z:0.0
x:4, y:0, z:0.0
x:3, y:0, z:0.0
x:4, y:0, z:0.0
x:4, y:0, z:0.0
x:4, y:1, z:0.0
x:4, y:1, z:0.0
x:4, y:1, z:0.0
x:4, y:1, z:0.0
x:4, y:0, z:0.0
x:4, y:1, z:0.0
x:3, y:1, z:0.0
x:3, y:0, z:0.0
x:2, y:0, z:0.0
x:3, y:0, z:0.0
x:4, y:0, z:0.0
x:4, y:1, z:0.0
x:3, y:1, z:0.0
x:4, y:1, z:0.0
x:4, y:1, z:0.0
x:3, y:1, z:0.0
x:3, y:2, z:0.0
x:3, y:1, z:0.0
x:2, y:1, z:0.0
x:3, y:1, z:0.0
x:3, y:0, z:0.0
x:4, y:0, z:0.0
x:4, y:1, z:0.0
x:4, y:2, z:0.0
x:4, y:1, z:0.0
x:4, y:0, z:0.0
x:4, y:0, z:0.0
x:4, y:0, z:0.0
x:4, y:0, z:0.0
x:4, y:1, z:0.0
x:4, y:0, z:0.0
x:3, y:0, z:0.0
x:2, y:0, z:0.0
x:1, y:0, z:0.0
x:2, y:0, z:0.0
x:3, y:0, z:0.0
x:4, y:0, z:0.0
x:4, y:0, z:0.0
x:4, y:0, z:0.0
x:4, y:1, z:0.0
x:4, y:0, z:0.0
x:3, y:0, z:0.0
x:4, y:0, z:0.0
x:4, y:1, z:0.0
x:3, y:1, z:0.0
x:3, y:2, z:0.0
x:4, y:2, z:0.0
x:4, y:1, z:0.0
x:4, y:2, z:0.0
x:4, y:2, z:0.0
x:3, y:2, z:0.0
x:2, y:2, z:0.0
x:2, y:1, z:0.0
x:2, y:2, z:0.0
x:3, y:2, z:0.0
x:3, y:1, z:0.0
x:3, y:0, z:0.0
x:3, y:1, z:0.0
x:3, y:2, z:0.0
x:4, y:2, z:0.0
x:4, y:2, z:0.0
x:3, y:2, z:0.0
x:2, y:2, z:0.0
x:2, y:3, z:0.0
x:2, y:2, z:0.0
x:2, y:3, z:0.0
x:2, y:4, z:0.0
x:1, y:4, z:0.0
x:1, y:3, z:0.0
x:0, y:3, z:0.0
x:1, y:3, z:0.0
x:2, y:3, z:0.0
x:3, y:3, z:0.0
x:2, y:3, z:0.0
x:2, y:4, z:0.0
x:3, y:4, z:0.0
x:4, y:4, z:0.0
x:4, y:4, z:0.0
x:4, y:4, z:0.0
x:4, y:3, z:0.0
x:4, y:4, z:0.0
x:3, y:4, z:0.0
x:3, y:3, z:0.0
x:2, y:3, z:0.0
x:3, y:3, z:0.0
x:3, y:2, z:0.0
x:2, y:2, z:0.0
x:3, y:2, z:0.0
x:4, y:2, z:0.0
x:3, y:2, z:0.0
x:3, y:3, z:0.0
x:3, y:2, z:0.0
x:2, y:2, z:0.0
x:1, y:2, z:0.0
x:1, y:1, z:0.0
x:2, y:1, z:0.0
x:1, y:1, z:0.0
x:1, y:2, z:0.0
x:2, y:2, z:0.0
x:2, y:1, z:0.0
x:3, y:1, z:0.0
x:2, y:1, z:0.0
x:1, y:1, z:0.0
x:0, y:1, z:0.0
x:0, y:1, z:0.0
x:0, y:0, z:0.0
x:0, y:0, z:0.0
x:0, y:0, z:0.0
x:0, y:0, z:0.0
x:0, y:0, z:0.0
x:1, y:0, z:0.0
x:1, y:0, z:0.0
x:1, y:1, z:0.0
x:2, y:1, z:0.0
x:2, y:2, z:0.0
x:2, y:3, z:0.0
x:2, y:4, z:0.0
x:2, y:4, z:0.0
x:1, y:4, z:0.0
x:0, y:4, z:0.0
